{
  "miniprogramRoot": "./dist/jd",
  "projectname": "taro-test-src",
  
  "appid": "touristappid",
  "setting": {
    "urlCheck": true,
    "es6": false,
    "postcss": false,
    "minified": false
  },
  "compileType": "miniprogram"
}