{
  "miniprogramRoot": "./dist/weapp",
  "projectname": "taro-test",
  "description": "",
  "appid": "touristappid",
  "setting": {
    "urlCheck": true,
    "es6": false,
    "postcss": false,
    "minified": false
  },
  "compileType": "miniprogram"
}
